1 10 20
100 200 125
201 210 89
900 1000 174
55199 605429 470
396543 341211 441
276985 547475 470
660427 247296 509
117799 369836 443
601198 329151 470
562373 38896 470
962576 641638 525
247125 14265 443
384639 321771 441
733776 269886 509
508461 235932 449
533390 403248 470
358212 667837 509
507100 274818 449
7063 752432 509
842671 76546 525
207651 250882 443
906004 551690 525
657972 7102 509
175100 900156 525
674012 947587 525
566428 109782 470
547250 828709 509
743935 448887 509
253398 916994 525
371986 338717 441
764784 417305 509
277774 403976 441
330088 954127 525
89846 951283 525
627199 80188 509
888274 193852 525
699726 568347 509
792523 634333 504
50519 697223 509
557750 251757 470
907147 547820 525
942370 421670 525
537632 34679 470
190104 147210 383
597703 678355 509
938113 81081 525
884267 925444 476
528907 963907 525
983436 378657 525
176805 492735 449
624152 682796 509
235529 90724 443
4942 875265 525
730430 266579 509
526549 136360 470
334117 751699 509
19635 454834 449
826565 86713 509
43126 92995 351
242295 535527 470
106239 999349 525
874354 843684 432
905574 680015 525
270755 686311 509
599696 366310 470
712030 286492 509
213315 555125 470
12304 114728 354
642324 342665 509
376567 912428 525
446722 42543 449
152640 457784 449
970774 895093 507
894056 204058 525
527005 14244 470
786467 322726 509
885199 11966 525
948799 404165 525
883396 559397 525
839114 831806 525
841833 86332 525
964653 153933 525
677378 689796 398
997950 813416 525
19769 682868 509
842402 524372 525
4568 256830 443
928094 352050 525
444055 437481 400
655676 926702 525
709764 786082 468
835664 745246 468
211097 787688 509
718700 723692 411
854769 461847 525
53782 554733 470
871439 487632 525
803616 573621 509
350346 153950 443
449364 723032 509
989596 312963 525
173812 629860 509
365484 710721 509
652937 486997 509
582017 537548 452
374845 426046 449
935562 118805 525
673547 63229 509
987710 527310 525
756443 230418 509
217456 423461 449
468339 782856 509
245799 561824 470
602168 164142 470
345365 741049 509
324387 398646 441
75647 212007 383
378703 434751 449
760061 271312 509
418059 23946 449
424201 101367 449
724752 111322 509
947522 193693 525
12319 743936 509
658583 844818 525
692560 841968 525
554044 119349 470
718272 699455 504
325509 845612 525
739479 709628 424
633627 582193 509
118575 601767 470
13747 519940 470
810219 320787 509
651754 529243 509
692383 560292 509
313350 101748 443
626315 663334 509
173346 588715 470
833480 987235 525
25789 689010 509
757009 242334 509
172011 748975 509
152704 769230 509
50744 30245 324
209739 597060 470
255619 959443 525
948889 107585 525
638474 13976 509
937321 231116 525
460547 264345 449
780347 965827 525
998570 154345 525
951382 806009 525
450560 688818 509
388714 471463 449
66716 794876 509
811352 751301 468
962783 121506 525
736407 159213 509
198630 773822 509
658414 825171 504
851984 761087 525
403090 511739 449
75629 826208 509
198656 849246 525
229383 878358 525
127295 320016 443
451352 390878 449
35598 19019 311
536528 844295 525
634439 223478 509
219274 917993 525
841453 568833 525
65417 332704 443
57307 715741 509
803262 829708 450
837661 587526 509
417910 161566 449
531345 879738 525
407745 598743 470
196864 201747 342
125464 422598 449
266135 412618 449
398837 289509 441
18660 520897 470
179807 484541 449
197491 505783 449
400458 488536 449
159429 573625 470
110672 771983 509
484043 500962 426
15730 566309 470
807489 178895 509
327017 572958 470
726590 85790 509
942956 244865 525
509326 697721 509
1 1000000 525
