1 10 20
100 200 125
201 210 89
900 1000 174
8880 1444 262
2333 4444 238
12 123 119
3339 37923 324
1233 2334 183
12344 69888 340
34555 66664 340
23442 23455 132
900000 910000 445
2384 12382 268
1233 1233 133
6000 7000 262
4000 5000 215
9000 10000 260
20000 30000 308
20000 20001 168
998000 100000 525
124 523 144
434 667 145
222 847 171
1034 7890 262
37000 43987 306
23967 67594 340
657 7004 262
4000 5000 215
888333 999887 507
5000 5000 29
44 300022 443
123 453234 449
1742 7877 262
2366 71833 340
1234 88912 351
12341 14555 276
88889 89999 315
800 900 179
400 500 142
6879 89000 351
7533 7878 221
45555 46677 283
23333 33333 308
333 345 126
879 456 179
234 1379 182
2334 4658 238
7484 9795 260
8888 9999 260
1222 4444 238
4444 5555 210
7777 8888 252
8888 9999 260
22 33 112
44 55 113
66 55 113
9999 23455 279
15000 16000 271
16000 17000 266
1 15 20
12 784 171
9876 9888 242
9876 10000 242
12333 56888 340
67777 78888 351
79293 98787 333
34859 54893 340
85873 99999 333
800000 900000 525
800000 850000 525
70000 90000 351
10000 30000 308
10000 12000 268
12000 54555 340
34444 55555 340
89000 23444 351
49882 24888 324
15 17 18
18 19 21
999 10000 262
10000 12000 268
3000 5000 238
1233 2444 183
9999 10000 92
4444 5556 210
670000 780999 504
890344 890000 339
670000 710000 504
6700 8900 257
6753 7890 257
8957 9876 260
9876 9999 242
100000 345678 443
499388 174838 449
1288 6788 262
7899 9009 252
1 80000 351
8999 2888 262
1238 8999 262
6890 8790 257
1 1 1
990000 999876 440
767888 877655 525
678888 654527 442
