.............................
----------------------------------------------------------------------
Ran 29 tests in 0.741s

OK
Name             Stmts   Miss Branch BrPart  Cover   Missing
------------------------------------------------------------
Collatz.py          62      0     38      1    99%   54->71
TestCollatz.py     108      0      0      0   100%
------------------------------------------------------------
TOTAL              170      0     38      1    99%
